-- Merging decision tree log ---
manifest
ADDED from /var/lib/jenkins/workspace/BuildAPK/app/src/main/AndroidManifest.xml:1:1-31:12
INJECTED from /var/lib/jenkins/workspace/BuildAPK/app/src/main/AndroidManifest.xml:1:1-31:12
INJECTED from /var/lib/jenkins/workspace/BuildAPK/app/src/main/AndroidManifest.xml:1:1-31:12
INJECTED from /var/lib/jenkins/workspace/BuildAPK/app/src/main/AndroidManifest.xml:1:1-31:12
MERGED from [com.android.support:design:28.0.0] /var/lib/jenkins/.gradle/caches/transforms-2/files-2.1/d0cab5cae4894aae7603e0134773b6dc/design-28.0.0/AndroidManifest.xml:17:1-24:12
MERGED from [com.android.support:mediarouter-v7:28.0.0] /var/lib/jenkins/.gradle/caches/transforms-2/files-2.1/e5ca34bc3383eb249851656a7eddf631/mediarouter-v7-28.0.0/AndroidManifest.xml:17:1-22:12
MERGED from [com.github.AnyChart:AnyChart-Android:1.1.2] /var/lib/jenkins/.gradle/caches/transforms-2/files-2.1/fd5da930491c2014a6a772e856f398b6/AnyChart-Android-1.1.2/AndroidManifest.xml:2:1-17:12
MERGED from [com.github.denzcoskun:ImageSlideshow:0.0.2] /var/lib/jenkins/.gradle/caches/transforms-2/files-2.1/dcdb61abb72006011b24dd246801b6f6/ImageSlideshow-0.0.2/AndroidManifest.xml:2:1-11:12
MERGED from [com.android.support:appcompat-v7:28.0.0] /var/lib/jenkins/.gradle/caches/transforms-2/files-2.1/0d8d6032713bed3e8580cc05dcffd31f/appcompat-v7-28.0.0/AndroidManifest.xml:17:1-22:12
MERGED from [com.android.support.constraint:constraint-layout:1.1.3] /var/lib/jenkins/.gradle/caches/transforms-2/files-2.1/f11788db4499b225209ad08b199e8547/constraint-layout-1.1.3/AndroidManifest.xml:2:1-11:12
MERGED from [com.google.android.gms:play-services-maps:16.1.0] /var/lib/jenkins/.gradle/caches/transforms-2/files-2.1/21ad4dd370ef47f2f2226d4627a4aad2/play-services-maps-16.1.0/AndroidManifest.xml:17:1-38:12
MERGED from [com.google.android.gms:play-services-base:16.0.1] /var/lib/jenkins/.gradle/caches/transforms-2/files-2.1/7e305c0ff1d02f64574e93d6d57091d7/play-services-base-16.0.1/AndroidManifest.xml:17:1-29:12
MERGED from [com.google.android.gms:play-services-tasks:16.0.1] /var/lib/jenkins/.gradle/caches/transforms-2/files-2.1/6695e671074e5412e2b7df109b1a3d02/play-services-tasks-16.0.1/AndroidManifest.xml:2:1-9:12
MERGED from [com.google.android.gms:play-services-basement:16.0.1] /var/lib/jenkins/.gradle/caches/transforms-2/files-2.1/fc87db0cc6ef073d5a53fc89e768d4ad/play-services-basement-16.0.1/AndroidManifest.xml:17:1-28:12
MERGED from [com.android.support:support-v4:28.0.0] /var/lib/jenkins/.gradle/caches/transforms-2/files-2.1/9921879bc183b3c6a88a5818957ecddc/support-v4-28.0.0/AndroidManifest.xml:17:1-22:12
MERGED from [com.android.support:recyclerview-v7:28.0.0] /var/lib/jenkins/.gradle/caches/transforms-2/files-2.1/504d13401657c684f9311193f648eb07/recyclerview-v7-28.0.0/AndroidManifest.xml:17:1-22:12
MERGED from [com.android.support:support-fragment:28.0.0] /var/lib/jenkins/.gradle/caches/transforms-2/files-2.1/1dc110557334a628405600f806fb0463/support-fragment-28.0.0/AndroidManifest.xml:17:1-22:12
MERGED from [com.android.support:animated-vector-drawable:28.0.0] /var/lib/jenkins/.gradle/caches/transforms-2/files-2.1/a77cc86b95dedb8a833e3d08e707d081/animated-vector-drawable-28.0.0/AndroidManifest.xml:17:1-22:12
MERGED from [com.android.support:support-core-ui:28.0.0] /var/lib/jenkins/.gradle/caches/transforms-2/files-2.1/a791e6ba08b1710abc6f2da4272d37b8/support-core-ui-28.0.0/AndroidManifest.xml:17:1-22:12
MERGED from [com.android.support:palette-v7:28.0.0] /var/lib/jenkins/.gradle/caches/transforms-2/files-2.1/83da8e6dc01ff7d11da57616b40e2e64/palette-v7-28.0.0/AndroidManifest.xml:17:1-22:12
MERGED from [com.android.support:support-core-utils:28.0.0] /var/lib/jenkins/.gradle/caches/transforms-2/files-2.1/2911767c342765c438129c1a7fd9c88c/support-core-utils-28.0.0/AndroidManifest.xml:17:1-22:12
MERGED from [com.android.support:support-vector-drawable:28.0.0] /var/lib/jenkins/.gradle/caches/transforms-2/files-2.1/528cf23e8239a89d656f43fc0a556e3b/support-vector-drawable-28.0.0/AndroidManifest.xml:17:1-22:12
MERGED from [com.android.support:transition:28.0.0] /var/lib/jenkins/.gradle/caches/transforms-2/files-2.1/c28b899fae8939389c71b14f46d405e8/transition-28.0.0/AndroidManifest.xml:17:1-22:12
MERGED from [com.android.support:support-media-compat:28.0.0] /var/lib/jenkins/.gradle/caches/transforms-2/files-2.1/a76bd7083aa045c836fa913cf11ebc25/support-media-compat-28.0.0/AndroidManifest.xml:17:1-22:12
MERGED from [com.android.support:loader:28.0.0] /var/lib/jenkins/.gradle/caches/transforms-2/files-2.1/49f6d71cabed5dfc0fc64d844ca61f93/loader-28.0.0/AndroidManifest.xml:17:1-22:12
MERGED from [com.android.support:viewpager:28.0.0] /var/lib/jenkins/.gradle/caches/transforms-2/files-2.1/26ec43416dcb9a3588a6b755c807b2ea/viewpager-28.0.0/AndroidManifest.xml:17:1-22:12
MERGED from [com.android.support:coordinatorlayout:28.0.0] /var/lib/jenkins/.gradle/caches/transforms-2/files-2.1/0bf37f0150af49bbc435ff0f8f93cb3a/coordinatorlayout-28.0.0/AndroidManifest.xml:17:1-22:12
MERGED from [com.android.support:drawerlayout:28.0.0] /var/lib/jenkins/.gradle/caches/transforms-2/files-2.1/0c09a3ab6f265a0a05323543ae8fdf35/drawerlayout-28.0.0/AndroidManifest.xml:17:1-22:12
MERGED from [com.android.support:slidingpanelayout:28.0.0] /var/lib/jenkins/.gradle/caches/transforms-2/files-2.1/cb7eb27bd515f3f0679f7cc1ed800cb7/slidingpanelayout-28.0.0/AndroidManifest.xml:17:1-22:12
MERGED from [com.android.support:customview:28.0.0] /var/lib/jenkins/.gradle/caches/transforms-2/files-2.1/ccfa9917b212da156d7c2d48ce1336c8/customview-28.0.0/AndroidManifest.xml:17:1-22:12
MERGED from [com.android.support:swiperefreshlayout:28.0.0] /var/lib/jenkins/.gradle/caches/transforms-2/files-2.1/61c26e87e7acc7442317136c61bbf004/swiperefreshlayout-28.0.0/AndroidManifest.xml:17:1-22:12
MERGED from [com.android.support:asynclayoutinflater:28.0.0] /var/lib/jenkins/.gradle/caches/transforms-2/files-2.1/c48dc59daab7a5f4c2fce146b835811e/asynclayoutinflater-28.0.0/AndroidManifest.xml:17:1-22:12
MERGED from [com.android.support:support-compat:28.0.0] /var/lib/jenkins/.gradle/caches/transforms-2/files-2.1/3e46f6b9930c27683b5284fd6af4a5a5/support-compat-28.0.0/AndroidManifest.xml:17:1-24:12
MERGED from [com.android.support:versionedparcelable:28.0.0] /var/lib/jenkins/.gradle/caches/transforms-2/files-2.1/1f306f2a2094dd335cbace01293d80cd/versionedparcelable-28.0.0/AndroidManifest.xml:17:1-25:12
MERGED from [com.android.support:cursoradapter:28.0.0] /var/lib/jenkins/.gradle/caches/transforms-2/files-2.1/16d960f615dbc041061bad2e90dc0241/cursoradapter-28.0.0/AndroidManifest.xml:17:1-22:12
MERGED from [com.android.support:cardview-v7:28.0.0] /var/lib/jenkins/.gradle/caches/transforms-2/files-2.1/59e62f0d070828574b9029fbd19e617e/cardview-v7-28.0.0/AndroidManifest.xml:17:1-22:12
MERGED from [com.squareup.picasso:picasso:2.71828] /var/lib/jenkins/.gradle/caches/transforms-2/files-2.1/377180392d4e3af378cda05142ef2eaf/picasso-2.71828/AndroidManifest.xml:2:1-14:12
MERGED from [android.arch.lifecycle:runtime:1.1.1] /var/lib/jenkins/.gradle/caches/transforms-2/files-2.1/d5a9340f8d57e71a1f6647b81689d2a8/runtime-1.1.1/AndroidManifest.xml:17:1-22:12
MERGED from [com.android.support:documentfile:28.0.0] /var/lib/jenkins/.gradle/caches/transforms-2/files-2.1/a4f514ca75dff07f2d9372f19263cf27/documentfile-28.0.0/AndroidManifest.xml:17:1-22:12
MERGED from [com.android.support:localbroadcastmanager:28.0.0] /var/lib/jenkins/.gradle/caches/transforms-2/files-2.1/89d8063ebed40729e01df2d9f6896c47/localbroadcastmanager-28.0.0/AndroidManifest.xml:17:1-22:12
MERGED from [com.android.support:print:28.0.0] /var/lib/jenkins/.gradle/caches/transforms-2/files-2.1/277732648f048051b2601a4d91d8bde6/print-28.0.0/AndroidManifest.xml:17:1-22:12
MERGED from [android.arch.lifecycle:viewmodel:1.1.1] /var/lib/jenkins/.gradle/caches/transforms-2/files-2.1/bda0939d0d338a5af111b261ef0cd987/viewmodel-1.1.1/AndroidManifest.xml:17:1-22:12
MERGED from [com.android.support:interpolator:28.0.0] /var/lib/jenkins/.gradle/caches/transforms-2/files-2.1/3465e07d23fdc5ea42615c5d44b578b7/interpolator-28.0.0/AndroidManifest.xml:17:1-22:12
MERGED from [com.android.support:exifinterface:27.1.0] /var/lib/jenkins/.gradle/caches/transforms-2/files-2.1/343c002a7218e0e2d43206618f1723c6/exifinterface-27.1.0/AndroidManifest.xml:17:1-22:12
MERGED from [android.arch.lifecycle:livedata:1.1.1] /var/lib/jenkins/.gradle/caches/transforms-2/files-2.1/1c89399e19991e0164a2582366367579/livedata-1.1.1/AndroidManifest.xml:17:1-22:12
MERGED from [android.arch.lifecycle:livedata-core:1.1.1] /var/lib/jenkins/.gradle/caches/transforms-2/files-2.1/d1d4dafc6d8521a28b90c9f8ec8d4928/livedata-core-1.1.1/AndroidManifest.xml:17:1-22:12
MERGED from [android.arch.core:runtime:1.1.1] /var/lib/jenkins/.gradle/caches/transforms-2/files-2.1/331619df469f625ff01011e4bd5ea545/runtime-1.1.1/AndroidManifest.xml:17:1-22:12
INJECTED from /var/lib/jenkins/workspace/BuildAPK/app/src/main/AndroidManifest.xml:1:1-31:12
INJECTED from /var/lib/jenkins/workspace/BuildAPK/app/src/main/AndroidManifest.xml:1:1-31:12
INJECTED from /var/lib/jenkins/workspace/BuildAPK/app/src/main/AndroidManifest.xml:1:1-31:12
	package
		ADDED from /var/lib/jenkins/workspace/BuildAPK/app/src/main/AndroidManifest.xml:2:5-46
		INJECTED from /var/lib/jenkins/workspace/BuildAPK/app/src/main/AndroidManifest.xml
		INJECTED from /var/lib/jenkins/workspace/BuildAPK/app/src/main/AndroidManifest.xml
	android:versionName
		INJECTED from /var/lib/jenkins/workspace/BuildAPK/app/src/main/AndroidManifest.xml
		ADDED from /var/lib/jenkins/workspace/BuildAPK/app/src/main/AndroidManifest.xml:1:1-31:12
		INJECTED from /var/lib/jenkins/workspace/BuildAPK/app/src/main/AndroidManifest.xml
	android:versionCode
		INJECTED from /var/lib/jenkins/workspace/BuildAPK/app/src/main/AndroidManifest.xml
		ADDED from /var/lib/jenkins/workspace/BuildAPK/app/src/main/AndroidManifest.xml:1:1-31:12
		INJECTED from /var/lib/jenkins/workspace/BuildAPK/app/src/main/AndroidManifest.xml
	xmlns:android
		ADDED from /var/lib/jenkins/workspace/BuildAPK/app/src/main/AndroidManifest.xml:1:11-69
uses-permission#android.permission.INTERNET
ADDED from /var/lib/jenkins/workspace/BuildAPK/app/src/main/AndroidManifest.xml:4:5-67
MERGED from [com.google.android.gms:play-services-maps:16.1.0] /var/lib/jenkins/.gradle/caches/transforms-2/files-2.1/21ad4dd370ef47f2f2226d4627a4aad2/play-services-maps-16.1.0/AndroidManifest.xml:24:5-67
MERGED from [com.google.android.gms:play-services-maps:16.1.0] /var/lib/jenkins/.gradle/caches/transforms-2/files-2.1/21ad4dd370ef47f2f2226d4627a4aad2/play-services-maps-16.1.0/AndroidManifest.xml:24:5-67
	android:name
		ADDED from /var/lib/jenkins/workspace/BuildAPK/app/src/main/AndroidManifest.xml:4:22-64
application
ADDED from /var/lib/jenkins/workspace/BuildAPK/app/src/main/AndroidManifest.xml:6:5-30:19
MERGED from [com.android.support:design:28.0.0] /var/lib/jenkins/.gradle/caches/transforms-2/files-2.1/d0cab5cae4894aae7603e0134773b6dc/design-28.0.0/AndroidManifest.xml:22:5-20
MERGED from [com.android.support:design:28.0.0] /var/lib/jenkins/.gradle/caches/transforms-2/files-2.1/d0cab5cae4894aae7603e0134773b6dc/design-28.0.0/AndroidManifest.xml:22:5-20
MERGED from [com.github.AnyChart:AnyChart-Android:1.1.2] /var/lib/jenkins/.gradle/caches/transforms-2/files-2.1/fd5da930491c2014a6a772e856f398b6/AnyChart-Android-1.1.2/AndroidManifest.xml:11:5-15:19
MERGED from [com.github.AnyChart:AnyChart-Android:1.1.2] /var/lib/jenkins/.gradle/caches/transforms-2/files-2.1/fd5da930491c2014a6a772e856f398b6/AnyChart-Android-1.1.2/AndroidManifest.xml:11:5-15:19
MERGED from [com.android.support.constraint:constraint-layout:1.1.3] /var/lib/jenkins/.gradle/caches/transforms-2/files-2.1/f11788db4499b225209ad08b199e8547/constraint-layout-1.1.3/AndroidManifest.xml:9:5-20
MERGED from [com.android.support.constraint:constraint-layout:1.1.3] /var/lib/jenkins/.gradle/caches/transforms-2/files-2.1/f11788db4499b225209ad08b199e8547/constraint-layout-1.1.3/AndroidManifest.xml:9:5-20
MERGED from [com.google.android.gms:play-services-maps:16.1.0] /var/lib/jenkins/.gradle/caches/transforms-2/files-2.1/21ad4dd370ef47f2f2226d4627a4aad2/play-services-maps-16.1.0/AndroidManifest.xml:30:5-36:19
MERGED from [com.google.android.gms:play-services-maps:16.1.0] /var/lib/jenkins/.gradle/caches/transforms-2/files-2.1/21ad4dd370ef47f2f2226d4627a4aad2/play-services-maps-16.1.0/AndroidManifest.xml:30:5-36:19
MERGED from [com.google.android.gms:play-services-base:16.0.1] /var/lib/jenkins/.gradle/caches/transforms-2/files-2.1/7e305c0ff1d02f64574e93d6d57091d7/play-services-base-16.0.1/AndroidManifest.xml:22:5-27:19
MERGED from [com.google.android.gms:play-services-base:16.0.1] /var/lib/jenkins/.gradle/caches/transforms-2/files-2.1/7e305c0ff1d02f64574e93d6d57091d7/play-services-base-16.0.1/AndroidManifest.xml:22:5-27:19
MERGED from [com.google.android.gms:play-services-tasks:16.0.1] /var/lib/jenkins/.gradle/caches/transforms-2/files-2.1/6695e671074e5412e2b7df109b1a3d02/play-services-tasks-16.0.1/AndroidManifest.xml:7:5-20
MERGED from [com.google.android.gms:play-services-tasks:16.0.1] /var/lib/jenkins/.gradle/caches/transforms-2/files-2.1/6695e671074e5412e2b7df109b1a3d02/play-services-tasks-16.0.1/AndroidManifest.xml:7:5-20
MERGED from [com.google.android.gms:play-services-basement:16.0.1] /var/lib/jenkins/.gradle/caches/transforms-2/files-2.1/fc87db0cc6ef073d5a53fc89e768d4ad/play-services-basement-16.0.1/AndroidManifest.xml:22:5-26:19
MERGED from [com.google.android.gms:play-services-basement:16.0.1] /var/lib/jenkins/.gradle/caches/transforms-2/files-2.1/fc87db0cc6ef073d5a53fc89e768d4ad/play-services-basement-16.0.1/AndroidManifest.xml:22:5-26:19
MERGED from [com.android.support:support-compat:28.0.0] /var/lib/jenkins/.gradle/caches/transforms-2/files-2.1/3e46f6b9930c27683b5284fd6af4a5a5/support-compat-28.0.0/AndroidManifest.xml:22:5-94
MERGED from [com.android.support:support-compat:28.0.0] /var/lib/jenkins/.gradle/caches/transforms-2/files-2.1/3e46f6b9930c27683b5284fd6af4a5a5/support-compat-28.0.0/AndroidManifest.xml:22:5-94
MERGED from [com.android.support:versionedparcelable:28.0.0] /var/lib/jenkins/.gradle/caches/transforms-2/files-2.1/1f306f2a2094dd335cbace01293d80cd/versionedparcelable-28.0.0/AndroidManifest.xml:22:5-23:19
MERGED from [com.android.support:versionedparcelable:28.0.0] /var/lib/jenkins/.gradle/caches/transforms-2/files-2.1/1f306f2a2094dd335cbace01293d80cd/versionedparcelable-28.0.0/AndroidManifest.xml:22:5-23:19
MERGED from [com.squareup.picasso:picasso:2.71828] /var/lib/jenkins/.gradle/caches/transforms-2/files-2.1/377180392d4e3af378cda05142ef2eaf/picasso-2.71828/AndroidManifest.xml:7:5-12:19
MERGED from [com.squareup.picasso:picasso:2.71828] /var/lib/jenkins/.gradle/caches/transforms-2/files-2.1/377180392d4e3af378cda05142ef2eaf/picasso-2.71828/AndroidManifest.xml:7:5-12:19
	android:appComponentFactory
		ADDED from [com.android.support:support-compat:28.0.0] /var/lib/jenkins/.gradle/caches/transforms-2/files-2.1/3e46f6b9930c27683b5284fd6af4a5a5/support-compat-28.0.0/AndroidManifest.xml:22:18-91
	android:supportsRtl
		ADDED from /var/lib/jenkins/workspace/BuildAPK/app/src/main/AndroidManifest.xml:11:9-35
	android:label
		ADDED from /var/lib/jenkins/workspace/BuildAPK/app/src/main/AndroidManifest.xml:9:9-41
	android:roundIcon
		ADDED from /var/lib/jenkins/workspace/BuildAPK/app/src/main/AndroidManifest.xml:10:9-54
	android:icon
		ADDED from /var/lib/jenkins/workspace/BuildAPK/app/src/main/AndroidManifest.xml:8:9-43
	android:allowBackup
		ADDED from /var/lib/jenkins/workspace/BuildAPK/app/src/main/AndroidManifest.xml:7:9-35
	android:theme
		ADDED from /var/lib/jenkins/workspace/BuildAPK/app/src/main/AndroidManifest.xml:12:9-40
meta-data#com.google.android.geo.API_KEY
ADDED from /var/lib/jenkins/workspace/BuildAPK/app/src/main/AndroidManifest.xml:14:9-16:55
	android:value
		ADDED from /var/lib/jenkins/workspace/BuildAPK/app/src/main/AndroidManifest.xml:16:13-52
	android:name
		ADDED from /var/lib/jenkins/workspace/BuildAPK/app/src/main/AndroidManifest.xml:15:13-58
activity#com.solvd.carinademoapplication.ActivityTestScreens
ADDED from /var/lib/jenkins/workspace/BuildAPK/app/src/main/AndroidManifest.xml:18:9-57
	android:name
		ADDED from /var/lib/jenkins/workspace/BuildAPK/app/src/main/AndroidManifest.xml:18:19-54
activity#com.solvd.carinademoapplication.ActivityLoginForm
ADDED from /var/lib/jenkins/workspace/BuildAPK/app/src/main/AndroidManifest.xml:20:9-55
	android:name
		ADDED from /var/lib/jenkins/workspace/BuildAPK/app/src/main/AndroidManifest.xml:20:19-52
activity#com.solvd.carinademoapplication.ActivitySplash
ADDED from /var/lib/jenkins/workspace/BuildAPK/app/src/main/AndroidManifest.xml:22:9-29:20
	android:name
		ADDED from /var/lib/jenkins/workspace/BuildAPK/app/src/main/AndroidManifest.xml:22:19-49
intent-filter#action:name:android.intent.action.MAIN+action:name:android.intent.action.VIEW+category:name:android.intent.category.LAUNCHER
ADDED from /var/lib/jenkins/workspace/BuildAPK/app/src/main/AndroidManifest.xml:23:13-28:29
action#android.intent.action.MAIN
ADDED from /var/lib/jenkins/workspace/BuildAPK/app/src/main/AndroidManifest.xml:24:17-69
	android:name
		ADDED from /var/lib/jenkins/workspace/BuildAPK/app/src/main/AndroidManifest.xml:24:25-66
action#android.intent.action.VIEW
ADDED from /var/lib/jenkins/workspace/BuildAPK/app/src/main/AndroidManifest.xml:25:17-69
	android:name
		ADDED from /var/lib/jenkins/workspace/BuildAPK/app/src/main/AndroidManifest.xml:25:25-66
category#android.intent.category.LAUNCHER
ADDED from /var/lib/jenkins/workspace/BuildAPK/app/src/main/AndroidManifest.xml:27:17-77
	android:name
		ADDED from /var/lib/jenkins/workspace/BuildAPK/app/src/main/AndroidManifest.xml:27:27-74
uses-sdk
INJECTED from /var/lib/jenkins/workspace/BuildAPK/app/src/main/AndroidManifest.xml reason: use-sdk injection requested
INJECTED from /var/lib/jenkins/workspace/BuildAPK/app/src/main/AndroidManifest.xml
INJECTED from /var/lib/jenkins/workspace/BuildAPK/app/src/main/AndroidManifest.xml
MERGED from [com.android.support:design:28.0.0] /var/lib/jenkins/.gradle/caches/transforms-2/files-2.1/d0cab5cae4894aae7603e0134773b6dc/design-28.0.0/AndroidManifest.xml:20:5-44
MERGED from [com.android.support:design:28.0.0] /var/lib/jenkins/.gradle/caches/transforms-2/files-2.1/d0cab5cae4894aae7603e0134773b6dc/design-28.0.0/AndroidManifest.xml:20:5-44
MERGED from [com.android.support:mediarouter-v7:28.0.0] /var/lib/jenkins/.gradle/caches/transforms-2/files-2.1/e5ca34bc3383eb249851656a7eddf631/mediarouter-v7-28.0.0/AndroidManifest.xml:20:5-44
MERGED from [com.android.support:mediarouter-v7:28.0.0] /var/lib/jenkins/.gradle/caches/transforms-2/files-2.1/e5ca34bc3383eb249851656a7eddf631/mediarouter-v7-28.0.0/AndroidManifest.xml:20:5-44
MERGED from [com.github.AnyChart:AnyChart-Android:1.1.2] /var/lib/jenkins/.gradle/caches/transforms-2/files-2.1/fd5da930491c2014a6a772e856f398b6/AnyChart-Android-1.1.2/AndroidManifest.xml:7:5-9:41
MERGED from [com.github.AnyChart:AnyChart-Android:1.1.2] /var/lib/jenkins/.gradle/caches/transforms-2/files-2.1/fd5da930491c2014a6a772e856f398b6/AnyChart-Android-1.1.2/AndroidManifest.xml:7:5-9:41
MERGED from [com.github.denzcoskun:ImageSlideshow:0.0.2] /var/lib/jenkins/.gradle/caches/transforms-2/files-2.1/dcdb61abb72006011b24dd246801b6f6/ImageSlideshow-0.0.2/AndroidManifest.xml:7:5-9:41
MERGED from [com.github.denzcoskun:ImageSlideshow:0.0.2] /var/lib/jenkins/.gradle/caches/transforms-2/files-2.1/dcdb61abb72006011b24dd246801b6f6/ImageSlideshow-0.0.2/AndroidManifest.xml:7:5-9:41
MERGED from [com.android.support:appcompat-v7:28.0.0] /var/lib/jenkins/.gradle/caches/transforms-2/files-2.1/0d8d6032713bed3e8580cc05dcffd31f/appcompat-v7-28.0.0/AndroidManifest.xml:20:5-44
MERGED from [com.android.support:appcompat-v7:28.0.0] /var/lib/jenkins/.gradle/caches/transforms-2/files-2.1/0d8d6032713bed3e8580cc05dcffd31f/appcompat-v7-28.0.0/AndroidManifest.xml:20:5-44
MERGED from [com.android.support.constraint:constraint-layout:1.1.3] /var/lib/jenkins/.gradle/caches/transforms-2/files-2.1/f11788db4499b225209ad08b199e8547/constraint-layout-1.1.3/AndroidManifest.xml:5:5-7:41
MERGED from [com.android.support.constraint:constraint-layout:1.1.3] /var/lib/jenkins/.gradle/caches/transforms-2/files-2.1/f11788db4499b225209ad08b199e8547/constraint-layout-1.1.3/AndroidManifest.xml:5:5-7:41
MERGED from [com.google.android.gms:play-services-maps:16.1.0] /var/lib/jenkins/.gradle/caches/transforms-2/files-2.1/21ad4dd370ef47f2f2226d4627a4aad2/play-services-maps-16.1.0/AndroidManifest.xml:20:5-44
MERGED from [com.google.android.gms:play-services-maps:16.1.0] /var/lib/jenkins/.gradle/caches/transforms-2/files-2.1/21ad4dd370ef47f2f2226d4627a4aad2/play-services-maps-16.1.0/AndroidManifest.xml:20:5-44
MERGED from [com.google.android.gms:play-services-base:16.0.1] /var/lib/jenkins/.gradle/caches/transforms-2/files-2.1/7e305c0ff1d02f64574e93d6d57091d7/play-services-base-16.0.1/AndroidManifest.xml:20:5-44
MERGED from [com.google.android.gms:play-services-base:16.0.1] /var/lib/jenkins/.gradle/caches/transforms-2/files-2.1/7e305c0ff1d02f64574e93d6d57091d7/play-services-base-16.0.1/AndroidManifest.xml:20:5-44
MERGED from [com.google.android.gms:play-services-tasks:16.0.1] /var/lib/jenkins/.gradle/caches/transforms-2/files-2.1/6695e671074e5412e2b7df109b1a3d02/play-services-tasks-16.0.1/AndroidManifest.xml:5:5-44
MERGED from [com.google.android.gms:play-services-tasks:16.0.1] /var/lib/jenkins/.gradle/caches/transforms-2/files-2.1/6695e671074e5412e2b7df109b1a3d02/play-services-tasks-16.0.1/AndroidManifest.xml:5:5-44
MERGED from [com.google.android.gms:play-services-basement:16.0.1] /var/lib/jenkins/.gradle/caches/transforms-2/files-2.1/fc87db0cc6ef073d5a53fc89e768d4ad/play-services-basement-16.0.1/AndroidManifest.xml:20:5-44
MERGED from [com.google.android.gms:play-services-basement:16.0.1] /var/lib/jenkins/.gradle/caches/transforms-2/files-2.1/fc87db0cc6ef073d5a53fc89e768d4ad/play-services-basement-16.0.1/AndroidManifest.xml:20:5-44
MERGED from [com.android.support:support-v4:28.0.0] /var/lib/jenkins/.gradle/caches/transforms-2/files-2.1/9921879bc183b3c6a88a5818957ecddc/support-v4-28.0.0/AndroidManifest.xml:20:5-44
MERGED from [com.android.support:support-v4:28.0.0] /var/lib/jenkins/.gradle/caches/transforms-2/files-2.1/9921879bc183b3c6a88a5818957ecddc/support-v4-28.0.0/AndroidManifest.xml:20:5-44
MERGED from [com.android.support:recyclerview-v7:28.0.0] /var/lib/jenkins/.gradle/caches/transforms-2/files-2.1/504d13401657c684f9311193f648eb07/recyclerview-v7-28.0.0/AndroidManifest.xml:20:5-44
MERGED from [com.android.support:recyclerview-v7:28.0.0] /var/lib/jenkins/.gradle/caches/transforms-2/files-2.1/504d13401657c684f9311193f648eb07/recyclerview-v7-28.0.0/AndroidManifest.xml:20:5-44
MERGED from [com.android.support:support-fragment:28.0.0] /var/lib/jenkins/.gradle/caches/transforms-2/files-2.1/1dc110557334a628405600f806fb0463/support-fragment-28.0.0/AndroidManifest.xml:20:5-44
MERGED from [com.android.support:support-fragment:28.0.0] /var/lib/jenkins/.gradle/caches/transforms-2/files-2.1/1dc110557334a628405600f806fb0463/support-fragment-28.0.0/AndroidManifest.xml:20:5-44
MERGED from [com.android.support:animated-vector-drawable:28.0.0] /var/lib/jenkins/.gradle/caches/transforms-2/files-2.1/a77cc86b95dedb8a833e3d08e707d081/animated-vector-drawable-28.0.0/AndroidManifest.xml:20:5-44
MERGED from [com.android.support:animated-vector-drawable:28.0.0] /var/lib/jenkins/.gradle/caches/transforms-2/files-2.1/a77cc86b95dedb8a833e3d08e707d081/animated-vector-drawable-28.0.0/AndroidManifest.xml:20:5-44
MERGED from [com.android.support:support-core-ui:28.0.0] /var/lib/jenkins/.gradle/caches/transforms-2/files-2.1/a791e6ba08b1710abc6f2da4272d37b8/support-core-ui-28.0.0/AndroidManifest.xml:20:5-44
MERGED from [com.android.support:support-core-ui:28.0.0] /var/lib/jenkins/.gradle/caches/transforms-2/files-2.1/a791e6ba08b1710abc6f2da4272d37b8/support-core-ui-28.0.0/AndroidManifest.xml:20:5-44
MERGED from [com.android.support:palette-v7:28.0.0] /var/lib/jenkins/.gradle/caches/transforms-2/files-2.1/83da8e6dc01ff7d11da57616b40e2e64/palette-v7-28.0.0/AndroidManifest.xml:20:5-44
MERGED from [com.android.support:palette-v7:28.0.0] /var/lib/jenkins/.gradle/caches/transforms-2/files-2.1/83da8e6dc01ff7d11da57616b40e2e64/palette-v7-28.0.0/AndroidManifest.xml:20:5-44
MERGED from [com.android.support:support-core-utils:28.0.0] /var/lib/jenkins/.gradle/caches/transforms-2/files-2.1/2911767c342765c438129c1a7fd9c88c/support-core-utils-28.0.0/AndroidManifest.xml:20:5-44
MERGED from [com.android.support:support-core-utils:28.0.0] /var/lib/jenkins/.gradle/caches/transforms-2/files-2.1/2911767c342765c438129c1a7fd9c88c/support-core-utils-28.0.0/AndroidManifest.xml:20:5-44
MERGED from [com.android.support:support-vector-drawable:28.0.0] /var/lib/jenkins/.gradle/caches/transforms-2/files-2.1/528cf23e8239a89d656f43fc0a556e3b/support-vector-drawable-28.0.0/AndroidManifest.xml:20:5-44
MERGED from [com.android.support:support-vector-drawable:28.0.0] /var/lib/jenkins/.gradle/caches/transforms-2/files-2.1/528cf23e8239a89d656f43fc0a556e3b/support-vector-drawable-28.0.0/AndroidManifest.xml:20:5-44
MERGED from [com.android.support:transition:28.0.0] /var/lib/jenkins/.gradle/caches/transforms-2/files-2.1/c28b899fae8939389c71b14f46d405e8/transition-28.0.0/AndroidManifest.xml:20:5-44
MERGED from [com.android.support:transition:28.0.0] /var/lib/jenkins/.gradle/caches/transforms-2/files-2.1/c28b899fae8939389c71b14f46d405e8/transition-28.0.0/AndroidManifest.xml:20:5-44
MERGED from [com.android.support:support-media-compat:28.0.0] /var/lib/jenkins/.gradle/caches/transforms-2/files-2.1/a76bd7083aa045c836fa913cf11ebc25/support-media-compat-28.0.0/AndroidManifest.xml:20:5-44
MERGED from [com.android.support:support-media-compat:28.0.0] /var/lib/jenkins/.gradle/caches/transforms-2/files-2.1/a76bd7083aa045c836fa913cf11ebc25/support-media-compat-28.0.0/AndroidManifest.xml:20:5-44
MERGED from [com.android.support:loader:28.0.0] /var/lib/jenkins/.gradle/caches/transforms-2/files-2.1/49f6d71cabed5dfc0fc64d844ca61f93/loader-28.0.0/AndroidManifest.xml:20:5-44
MERGED from [com.android.support:loader:28.0.0] /var/lib/jenkins/.gradle/caches/transforms-2/files-2.1/49f6d71cabed5dfc0fc64d844ca61f93/loader-28.0.0/AndroidManifest.xml:20:5-44
MERGED from [com.android.support:viewpager:28.0.0] /var/lib/jenkins/.gradle/caches/transforms-2/files-2.1/26ec43416dcb9a3588a6b755c807b2ea/viewpager-28.0.0/AndroidManifest.xml:20:5-44
MERGED from [com.android.support:viewpager:28.0.0] /var/lib/jenkins/.gradle/caches/transforms-2/files-2.1/26ec43416dcb9a3588a6b755c807b2ea/viewpager-28.0.0/AndroidManifest.xml:20:5-44
MERGED from [com.android.support:coordinatorlayout:28.0.0] /var/lib/jenkins/.gradle/caches/transforms-2/files-2.1/0bf37f0150af49bbc435ff0f8f93cb3a/coordinatorlayout-28.0.0/AndroidManifest.xml:20:5-44
MERGED from [com.android.support:coordinatorlayout:28.0.0] /var/lib/jenkins/.gradle/caches/transforms-2/files-2.1/0bf37f0150af49bbc435ff0f8f93cb3a/coordinatorlayout-28.0.0/AndroidManifest.xml:20:5-44
MERGED from [com.android.support:drawerlayout:28.0.0] /var/lib/jenkins/.gradle/caches/transforms-2/files-2.1/0c09a3ab6f265a0a05323543ae8fdf35/drawerlayout-28.0.0/AndroidManifest.xml:20:5-44
MERGED from [com.android.support:drawerlayout:28.0.0] /var/lib/jenkins/.gradle/caches/transforms-2/files-2.1/0c09a3ab6f265a0a05323543ae8fdf35/drawerlayout-28.0.0/AndroidManifest.xml:20:5-44
MERGED from [com.android.support:slidingpanelayout:28.0.0] /var/lib/jenkins/.gradle/caches/transforms-2/files-2.1/cb7eb27bd515f3f0679f7cc1ed800cb7/slidingpanelayout-28.0.0/AndroidManifest.xml:20:5-44
MERGED from [com.android.support:slidingpanelayout:28.0.0] /var/lib/jenkins/.gradle/caches/transforms-2/files-2.1/cb7eb27bd515f3f0679f7cc1ed800cb7/slidingpanelayout-28.0.0/AndroidManifest.xml:20:5-44
MERGED from [com.android.support:customview:28.0.0] /var/lib/jenkins/.gradle/caches/transforms-2/files-2.1/ccfa9917b212da156d7c2d48ce1336c8/customview-28.0.0/AndroidManifest.xml:20:5-44
MERGED from [com.android.support:customview:28.0.0] /var/lib/jenkins/.gradle/caches/transforms-2/files-2.1/ccfa9917b212da156d7c2d48ce1336c8/customview-28.0.0/AndroidManifest.xml:20:5-44
MERGED from [com.android.support:swiperefreshlayout:28.0.0] /var/lib/jenkins/.gradle/caches/transforms-2/files-2.1/61c26e87e7acc7442317136c61bbf004/swiperefreshlayout-28.0.0/AndroidManifest.xml:20:5-44
MERGED from [com.android.support:swiperefreshlayout:28.0.0] /var/lib/jenkins/.gradle/caches/transforms-2/files-2.1/61c26e87e7acc7442317136c61bbf004/swiperefreshlayout-28.0.0/AndroidManifest.xml:20:5-44
MERGED from [com.android.support:asynclayoutinflater:28.0.0] /var/lib/jenkins/.gradle/caches/transforms-2/files-2.1/c48dc59daab7a5f4c2fce146b835811e/asynclayoutinflater-28.0.0/AndroidManifest.xml:20:5-44
MERGED from [com.android.support:asynclayoutinflater:28.0.0] /var/lib/jenkins/.gradle/caches/transforms-2/files-2.1/c48dc59daab7a5f4c2fce146b835811e/asynclayoutinflater-28.0.0/AndroidManifest.xml:20:5-44
MERGED from [com.android.support:support-compat:28.0.0] /var/lib/jenkins/.gradle/caches/transforms-2/files-2.1/3e46f6b9930c27683b5284fd6af4a5a5/support-compat-28.0.0/AndroidManifest.xml:20:5-44
MERGED from [com.android.support:support-compat:28.0.0] /var/lib/jenkins/.gradle/caches/transforms-2/files-2.1/3e46f6b9930c27683b5284fd6af4a5a5/support-compat-28.0.0/AndroidManifest.xml:20:5-44
MERGED from [com.android.support:versionedparcelable:28.0.0] /var/lib/jenkins/.gradle/caches/transforms-2/files-2.1/1f306f2a2094dd335cbace01293d80cd/versionedparcelable-28.0.0/AndroidManifest.xml:20:5-44
MERGED from [com.android.support:versionedparcelable:28.0.0] /var/lib/jenkins/.gradle/caches/transforms-2/files-2.1/1f306f2a2094dd335cbace01293d80cd/versionedparcelable-28.0.0/AndroidManifest.xml:20:5-44
MERGED from [com.android.support:cursoradapter:28.0.0] /var/lib/jenkins/.gradle/caches/transforms-2/files-2.1/16d960f615dbc041061bad2e90dc0241/cursoradapter-28.0.0/AndroidManifest.xml:20:5-44
MERGED from [com.android.support:cursoradapter:28.0.0] /var/lib/jenkins/.gradle/caches/transforms-2/files-2.1/16d960f615dbc041061bad2e90dc0241/cursoradapter-28.0.0/AndroidManifest.xml:20:5-44
MERGED from [com.android.support:cardview-v7:28.0.0] /var/lib/jenkins/.gradle/caches/transforms-2/files-2.1/59e62f0d070828574b9029fbd19e617e/cardview-v7-28.0.0/AndroidManifest.xml:20:5-44
MERGED from [com.android.support:cardview-v7:28.0.0] /var/lib/jenkins/.gradle/caches/transforms-2/files-2.1/59e62f0d070828574b9029fbd19e617e/cardview-v7-28.0.0/AndroidManifest.xml:20:5-44
MERGED from [com.squareup.picasso:picasso:2.71828] /var/lib/jenkins/.gradle/caches/transforms-2/files-2.1/377180392d4e3af378cda05142ef2eaf/picasso-2.71828/AndroidManifest.xml:5:5-44
MERGED from [com.squareup.picasso:picasso:2.71828] /var/lib/jenkins/.gradle/caches/transforms-2/files-2.1/377180392d4e3af378cda05142ef2eaf/picasso-2.71828/AndroidManifest.xml:5:5-44
MERGED from [android.arch.lifecycle:runtime:1.1.1] /var/lib/jenkins/.gradle/caches/transforms-2/files-2.1/d5a9340f8d57e71a1f6647b81689d2a8/runtime-1.1.1/AndroidManifest.xml:20:5-44
MERGED from [android.arch.lifecycle:runtime:1.1.1] /var/lib/jenkins/.gradle/caches/transforms-2/files-2.1/d5a9340f8d57e71a1f6647b81689d2a8/runtime-1.1.1/AndroidManifest.xml:20:5-44
MERGED from [com.android.support:documentfile:28.0.0] /var/lib/jenkins/.gradle/caches/transforms-2/files-2.1/a4f514ca75dff07f2d9372f19263cf27/documentfile-28.0.0/AndroidManifest.xml:20:5-44
MERGED from [com.android.support:documentfile:28.0.0] /var/lib/jenkins/.gradle/caches/transforms-2/files-2.1/a4f514ca75dff07f2d9372f19263cf27/documentfile-28.0.0/AndroidManifest.xml:20:5-44
MERGED from [com.android.support:localbroadcastmanager:28.0.0] /var/lib/jenkins/.gradle/caches/transforms-2/files-2.1/89d8063ebed40729e01df2d9f6896c47/localbroadcastmanager-28.0.0/AndroidManifest.xml:20:5-44
MERGED from [com.android.support:localbroadcastmanager:28.0.0] /var/lib/jenkins/.gradle/caches/transforms-2/files-2.1/89d8063ebed40729e01df2d9f6896c47/localbroadcastmanager-28.0.0/AndroidManifest.xml:20:5-44
MERGED from [com.android.support:print:28.0.0] /var/lib/jenkins/.gradle/caches/transforms-2/files-2.1/277732648f048051b2601a4d91d8bde6/print-28.0.0/AndroidManifest.xml:20:5-44
MERGED from [com.android.support:print:28.0.0] /var/lib/jenkins/.gradle/caches/transforms-2/files-2.1/277732648f048051b2601a4d91d8bde6/print-28.0.0/AndroidManifest.xml:20:5-44
MERGED from [android.arch.lifecycle:viewmodel:1.1.1] /var/lib/jenkins/.gradle/caches/transforms-2/files-2.1/bda0939d0d338a5af111b261ef0cd987/viewmodel-1.1.1/AndroidManifest.xml:20:5-44
MERGED from [android.arch.lifecycle:viewmodel:1.1.1] /var/lib/jenkins/.gradle/caches/transforms-2/files-2.1/bda0939d0d338a5af111b261ef0cd987/viewmodel-1.1.1/AndroidManifest.xml:20:5-44
MERGED from [com.android.support:interpolator:28.0.0] /var/lib/jenkins/.gradle/caches/transforms-2/files-2.1/3465e07d23fdc5ea42615c5d44b578b7/interpolator-28.0.0/AndroidManifest.xml:20:5-44
MERGED from [com.android.support:interpolator:28.0.0] /var/lib/jenkins/.gradle/caches/transforms-2/files-2.1/3465e07d23fdc5ea42615c5d44b578b7/interpolator-28.0.0/AndroidManifest.xml:20:5-44
MERGED from [com.android.support:exifinterface:27.1.0] /var/lib/jenkins/.gradle/caches/transforms-2/files-2.1/343c002a7218e0e2d43206618f1723c6/exifinterface-27.1.0/AndroidManifest.xml:20:5-44
MERGED from [com.android.support:exifinterface:27.1.0] /var/lib/jenkins/.gradle/caches/transforms-2/files-2.1/343c002a7218e0e2d43206618f1723c6/exifinterface-27.1.0/AndroidManifest.xml:20:5-44
MERGED from [android.arch.lifecycle:livedata:1.1.1] /var/lib/jenkins/.gradle/caches/transforms-2/files-2.1/1c89399e19991e0164a2582366367579/livedata-1.1.1/AndroidManifest.xml:20:5-44
MERGED from [android.arch.lifecycle:livedata:1.1.1] /var/lib/jenkins/.gradle/caches/transforms-2/files-2.1/1c89399e19991e0164a2582366367579/livedata-1.1.1/AndroidManifest.xml:20:5-44
MERGED from [android.arch.lifecycle:livedata-core:1.1.1] /var/lib/jenkins/.gradle/caches/transforms-2/files-2.1/d1d4dafc6d8521a28b90c9f8ec8d4928/livedata-core-1.1.1/AndroidManifest.xml:20:5-44
MERGED from [android.arch.lifecycle:livedata-core:1.1.1] /var/lib/jenkins/.gradle/caches/transforms-2/files-2.1/d1d4dafc6d8521a28b90c9f8ec8d4928/livedata-core-1.1.1/AndroidManifest.xml:20:5-44
MERGED from [android.arch.core:runtime:1.1.1] /var/lib/jenkins/.gradle/caches/transforms-2/files-2.1/331619df469f625ff01011e4bd5ea545/runtime-1.1.1/AndroidManifest.xml:20:5-44
MERGED from [android.arch.core:runtime:1.1.1] /var/lib/jenkins/.gradle/caches/transforms-2/files-2.1/331619df469f625ff01011e4bd5ea545/runtime-1.1.1/AndroidManifest.xml:20:5-44
INJECTED from /var/lib/jenkins/workspace/BuildAPK/app/src/main/AndroidManifest.xml
INJECTED from /var/lib/jenkins/workspace/BuildAPK/app/src/main/AndroidManifest.xml
	android:targetSdkVersion
		INJECTED from /var/lib/jenkins/workspace/BuildAPK/app/src/main/AndroidManifest.xml
		ADDED from /var/lib/jenkins/workspace/BuildAPK/app/src/main/AndroidManifest.xml
		INJECTED from /var/lib/jenkins/workspace/BuildAPK/app/src/main/AndroidManifest.xml
	android:minSdkVersion
		INJECTED from /var/lib/jenkins/workspace/BuildAPK/app/src/main/AndroidManifest.xml
		ADDED from /var/lib/jenkins/workspace/BuildAPK/app/src/main/AndroidManifest.xml
		INJECTED from /var/lib/jenkins/workspace/BuildAPK/app/src/main/AndroidManifest.xml
uses-permission#android.permission.ACCESS_NETWORK_STATE
ADDED from [com.google.android.gms:play-services-maps:16.1.0] /var/lib/jenkins/.gradle/caches/transforms-2/files-2.1/21ad4dd370ef47f2f2226d4627a4aad2/play-services-maps-16.1.0/AndroidManifest.xml:23:5-79
	android:name
		ADDED from [com.google.android.gms:play-services-maps:16.1.0] /var/lib/jenkins/.gradle/caches/transforms-2/files-2.1/21ad4dd370ef47f2f2226d4627a4aad2/play-services-maps-16.1.0/AndroidManifest.xml:23:22-76
uses-feature#0x00020000
ADDED from [com.google.android.gms:play-services-maps:16.1.0] /var/lib/jenkins/.gradle/caches/transforms-2/files-2.1/21ad4dd370ef47f2f2226d4627a4aad2/play-services-maps-16.1.0/AndroidManifest.xml:26:5-28:35
	android:glEsVersion
		ADDED from [com.google.android.gms:play-services-maps:16.1.0] /var/lib/jenkins/.gradle/caches/transforms-2/files-2.1/21ad4dd370ef47f2f2226d4627a4aad2/play-services-maps-16.1.0/AndroidManifest.xml:27:9-41
	android:required
		ADDED from [com.google.android.gms:play-services-maps:16.1.0] /var/lib/jenkins/.gradle/caches/transforms-2/files-2.1/21ad4dd370ef47f2f2226d4627a4aad2/play-services-maps-16.1.0/AndroidManifest.xml:28:9-32
uses-library#org.apache.http.legacy
ADDED from [com.google.android.gms:play-services-maps:16.1.0] /var/lib/jenkins/.gradle/caches/transforms-2/files-2.1/21ad4dd370ef47f2f2226d4627a4aad2/play-services-maps-16.1.0/AndroidManifest.xml:33:9-35:40
	android:required
		ADDED from [com.google.android.gms:play-services-maps:16.1.0] /var/lib/jenkins/.gradle/caches/transforms-2/files-2.1/21ad4dd370ef47f2f2226d4627a4aad2/play-services-maps-16.1.0/AndroidManifest.xml:35:13-37
	android:name
		ADDED from [com.google.android.gms:play-services-maps:16.1.0] /var/lib/jenkins/.gradle/caches/transforms-2/files-2.1/21ad4dd370ef47f2f2226d4627a4aad2/play-services-maps-16.1.0/AndroidManifest.xml:34:13-50
activity#com.google.android.gms.common.api.GoogleApiActivity
ADDED from [com.google.android.gms:play-services-base:16.0.1] /var/lib/jenkins/.gradle/caches/transforms-2/files-2.1/7e305c0ff1d02f64574e93d6d57091d7/play-services-base-16.0.1/AndroidManifest.xml:23:9-26:75
	android:exported
		ADDED from [com.google.android.gms:play-services-base:16.0.1] /var/lib/jenkins/.gradle/caches/transforms-2/files-2.1/7e305c0ff1d02f64574e93d6d57091d7/play-services-base-16.0.1/AndroidManifest.xml:25:13-37
	android:theme
		ADDED from [com.google.android.gms:play-services-base:16.0.1] /var/lib/jenkins/.gradle/caches/transforms-2/files-2.1/7e305c0ff1d02f64574e93d6d57091d7/play-services-base-16.0.1/AndroidManifest.xml:26:13-72
	android:name
		ADDED from [com.google.android.gms:play-services-base:16.0.1] /var/lib/jenkins/.gradle/caches/transforms-2/files-2.1/7e305c0ff1d02f64574e93d6d57091d7/play-services-base-16.0.1/AndroidManifest.xml:24:13-79
meta-data#com.google.android.gms.version
ADDED from [com.google.android.gms:play-services-basement:16.0.1] /var/lib/jenkins/.gradle/caches/transforms-2/files-2.1/fc87db0cc6ef073d5a53fc89e768d4ad/play-services-basement-16.0.1/AndroidManifest.xml:23:9-25:69
	android:value
		ADDED from [com.google.android.gms:play-services-basement:16.0.1] /var/lib/jenkins/.gradle/caches/transforms-2/files-2.1/fc87db0cc6ef073d5a53fc89e768d4ad/play-services-basement-16.0.1/AndroidManifest.xml:25:13-66
	android:name
		ADDED from [com.google.android.gms:play-services-basement:16.0.1] /var/lib/jenkins/.gradle/caches/transforms-2/files-2.1/fc87db0cc6ef073d5a53fc89e768d4ad/play-services-basement-16.0.1/AndroidManifest.xml:24:13-58
provider#com.squareup.picasso.PicassoProvider
ADDED from [com.squareup.picasso:picasso:2.71828] /var/lib/jenkins/.gradle/caches/transforms-2/files-2.1/377180392d4e3af378cda05142ef2eaf/picasso-2.71828/AndroidManifest.xml:8:9-11:40
	android:authorities
		ADDED from [com.squareup.picasso:picasso:2.71828] /var/lib/jenkins/.gradle/caches/transforms-2/files-2.1/377180392d4e3af378cda05142ef2eaf/picasso-2.71828/AndroidManifest.xml:10:13-72
	android:exported
		ADDED from [com.squareup.picasso:picasso:2.71828] /var/lib/jenkins/.gradle/caches/transforms-2/files-2.1/377180392d4e3af378cda05142ef2eaf/picasso-2.71828/AndroidManifest.xml:11:13-37
	android:name
		ADDED from [com.squareup.picasso:picasso:2.71828] /var/lib/jenkins/.gradle/caches/transforms-2/files-2.1/377180392d4e3af378cda05142ef2eaf/picasso-2.71828/AndroidManifest.xml:9:13-64
